<?xml version="1.0" encoding="UTF-8"?>
<!DOCTYPE svg PUBLIC "-//W3C//DTD SVG 1.1//EN" "http://www.w3.org/Graphics/SVG/1.1/DTD/svg11.dtd">
<!-- Creator: CorelDRAW X8 -->
<svg xmlns="http://www.w3.org/2000/svg" xml:space="preserve" width="100px" height="100px" version="1.1" style="shape-rendering:geometricPrecision; text-rendering:geometricPrecision; image-rendering:optimizeQuality; fill-rule:evenodd; clip-rule:evenodd"
viewBox="0 0 100000 100000"
 xmlns:xlink="http://www.w3.org/1999/xlink">
 <defs>
  <style type="text/css">
   <![CDATA[
    .fil6 {fill:url(#id0)}
    .fil2 {fill:url(#id1)}
    .fil1 {fill:url(#id2)}
    .fil4 {fill:url(#id3)}
    .fil3 {fill:url(#id4)}
    .fil5 {fill:url(#id5)}
    .fil0 {fill:url(#id6);fill-rule:nonzero}
   ]]>
  </style>
  <linearGradient id="id0" gradientUnits="userSpaceOnUse" x1="19649.8" y1="18841.5" x2="19650.9" y2="65991.2">
   <stop offset="0" style="stop-opacity:1; stop-color:#339F7B"/>
   <stop offset="1" style="stop-opacity:1; stop-color:#519AC4"/>
  </linearGradient>
  <linearGradient id="id1" gradientUnits="userSpaceOnUse" x1="13872.7" y1="81373.9" x2="13876" y2="181374">
   <stop offset="0" style="stop-opacity:1; stop-color:#339F7B"/>
   <stop offset="1" style="stop-opacity:1; stop-color:#6DB5D5"/>
  </linearGradient>
  <linearGradient id="id2" gradientUnits="userSpaceOnUse" xlink:href="#id1" x1="13872.7" y1="0" x2="13876" y2="100000">
  </linearGradient>
  <linearGradient id="id3" gradientUnits="userSpaceOnUse" xlink:href="#id1" x1="167501" y1="81373.9" x2="167498" y2="181374">
  </linearGradient>
  <linearGradient id="id4" gradientUnits="userSpaceOnUse" xlink:href="#id1" x1="167501" y1="0" x2="167498" y2="100000">
  </linearGradient>
  <linearGradient id="id5" gradientUnits="userSpaceOnUse" xlink:href="#id0" x1="19650.9" y1="18840.4" x2="19652" y2="65992.3">
  </linearGradient>
  <linearGradient id="id6" gradientUnits="userSpaceOnUse" xlink:href="#id1" x1="29797.3" y1="78382.7" x2="29801.7" y2="90957.3">
  </linearGradient>
 </defs>
 <g id="Capa_x0020_1">
  <metadata id="CorelCorpID_0Corel-Layer"/>
  <g id="_1531910119792">
   <path class="fil0" d="M32170 85398l-4790 0 -1085 2967 -935 0 3991 -10549 848 0 3991 10549 -927 0 -1093 -2967zm-4512 -757l4230 0 -2116 -5739 -2114 5739zm7533 -265c0,-1229 272,-2200 816,-2918 544,-716 1281,-1074 2213,-1074 1068,0 1879,425 2433,1275l45 -1128 810 0 0 7670c0,1010 -281,1808 -847,2397 -564,588 -1330,882 -2295,882 -546,0 -1068,-121 -1562,-364 -496,-244 -885,-568 -1170,-971l484 -519c613,752 1343,1127 2189,1127 724,0 1290,-212 1695,-641 407,-425 617,-1018 631,-1774l0 -985c-556,774 -1364,1160 -2428,1160 -907,0 -1637,-364 -2188,-1088 -549,-725 -826,-1701 -826,-2932l0 -117zm877 151c0,1000 201,1788 602,2364 400,577 966,865 1696,865 1066,0 1822,-477 2267,-1433l0 -3640c-202,-502 -496,-885 -877,-1148 -381,-264 -841,-395 -1378,-395 -729,0 -1296,287 -1701,858 -405,571 -609,1415 -609,2529zm10736 3986c-667,0 -1268,-163 -1806,-493 -540,-328 -957,-786 -1257,-1374 -299,-585 -450,-1244 -450,-1973l0 -311c0,-754 146,-1432 438,-2038 292,-604 699,-1078 1221,-1422 522,-345 1086,-518 1695,-518 951,0 1705,323 2264,973 559,651 836,1538 836,2666l0 484 -5591 0 0 166c0,890 255,1632 764,2225 510,592 1150,888 1924,888 462,0 873,-84 1226,-254 356,-171 678,-443 967,-816l544 413c-638,921 -1562,1384 -2775,1384zm-159 -7388c-651,0 -1200,240 -1647,718 -448,476 -720,1117 -816,1923l4702 0 0 -95c-24,-750 -240,-1364 -645,-1836 -405,-472 -937,-710 -1594,-710zm5609 -594l30 1336c294,-482 660,-851 1100,-1103 440,-255 925,-380 1456,-380 842,0 1467,237 1878,709 409,472 617,1181 622,2129l0 5143 -862 0 0 -5148c-6,-699 -153,-1221 -445,-1563 -293,-343 -760,-514 -1403,-514 -536,0 -1011,168 -1423,502 -413,336 -718,789 -915,1357l0 5366 -864 0 0 -7834 826 0zm10222 7255c606,0 1110,-171 1519,-512 407,-341 629,-784 662,-1325l833 0c-24,477 -173,912 -447,1308 -278,393 -643,700 -1098,922 -458,222 -947,334 -1469,334 -1028,0 -1842,-358 -2443,-1073 -601,-714 -903,-1677 -903,-2883l0 -262c0,-771 137,-1457 407,-2049 268,-594 657,-1054 1161,-1378 504,-323 1096,-484 1773,-484 859,0 1568,256 2125,768 558,512 857,1185 894,2021l-833 0c-37,-614 -259,-1108 -662,-1484 -403,-376 -911,-564 -1524,-564 -783,0 -1392,282 -1822,849 -433,566 -648,1356 -648,2378l0 252c0,1001 215,1780 648,2342 430,560 1041,840 1827,840zm5717 579l-868 0 0 -7834 868 0 0 7834zm-1021 -10101c0,-160 54,-299 161,-412 105,-112 249,-169 431,-169 186,0 332,57 441,169 109,113 163,252 163,412 0,163 -54,302 -163,411 -109,111 -255,165 -441,165 -182,0 -326,-54 -431,-165 -107,-109 -161,-248 -161,-411zm8327 10101c-87,-248 -143,-611 -165,-1093 -305,395 -693,702 -1165,917 -470,216 -969,324 -1496,324 -751,0 -1362,-210 -1827,-630 -468,-421 -700,-953 -700,-1596 0,-760 317,-1367 952,-1810 635,-444 1521,-667 2656,-667l1572 0 0 -893c0,-560 -173,-1003 -520,-1324 -343,-322 -848,-483 -1510,-483 -604,0 -1102,156 -1499,465 -395,312 -593,683 -593,1120l-870 -8c0,-622 288,-1161 870,-1618 579,-458 1291,-685 2137,-685 875,0 1562,217 2066,655 507,437 767,1046 779,1829l0 3707c0,758 81,1328 240,1703l0 87 -927 0zm-2722 -609c578,0 1095,-141 1552,-423 455,-279 789,-655 997,-1125l0 -1731 -1550 0c-866,10 -1541,169 -2031,478 -486,306 -728,729 -728,1269 0,440 160,806 486,1097 326,290 752,435 1274,435z"/>
   <g>
    <polygon class="fil1" points="0,0 18626,0 18626,2614 2614,2614 2614,18626 0,18626 "/>
    <polygon class="fil2" points="0,100000 18626,100000 18626,97386 2614,97386 2614,81374 0,81374 "/>
    <polygon class="fil3" points="100000,0 81374,0 81374,2614 97386,2614 97386,18626 100000,18626 "/>
    <polygon class="fil4" points="100000,100000 81374,100000 81374,97386 97386,97386 97386,81374 100000,81374 "/>
   </g>
   <g>
    <path class="fil5" d="M74994 39486c243,289 105,101 362,307 573,461 976,1013 1399,1594l223 318c625,735 1271,2400 1541,3422 382,1446 401,2749 401,4467 0,3271 -44,6572 -3,9838 65,5309 4692,9870 10095,9736 110,-3340 10,-6853 10,-10212 0,-2847 212,-12661 -319,-15053 -1398,-6299 -3299,-8666 -7302,-12351 -2023,-1656 -4768,-3296 -7299,-4027 -5535,-1597 -11243,-1186 -16313,1545 -1751,943 -3545,2141 -4918,3606 -275,296 -488,423 -714,701 -478,590 -565,789 -935,371l-427 -526c-13,-15 -33,-35 -47,-49l-627 -603c-1597,-1799 -6242,-4558 -8526,-5069 -1186,-265 -3404,-890 -4513,-838l15 10164c647,416 3032,236 6155,3275 1504,1464 2694,4012 3021,5982 435,2614 -107,10289 251,14099 459,4893 4818,9110 10115,8984 151,-4373 6,-9023 6,-13427 0,-2237 0,-4475 0,-6714 0,-2279 116,-3899 950,-5684 2314,-4951 7759,-7665 13190,-6165 1158,319 3609,1507 4209,2309z"/>
    <path class="fil6" d="M24206 40420c0,-494 -166,-3453 144,-3632 203,-117 9611,61 11016,-62l-4 -10134 -11184 -48c-171,-2034 152,-3434 -343,-5405 -999,-3969 -5188,-7652 -9777,-7400l-1 26114c-20,3655 -279,8861 359,12170 1160,6034 5113,11474 10445,14417 3371,1861 6556,2749 10501,2727 16,-1849 99,-8970 -46,-10159 -1822,-60 -3177,-360 -4589,-992 -1117,-501 -2511,-1353 -3330,-2248 -1957,-2135 -3191,-4811 -3193,-7877l2 -7471z"/>
   </g>
  </g>
 </g>
</svg>
